﻿OrganizationName,JobName,LaborRequestDate
NHC HomeCare - Ascension,Registered Nurse (RN) - Full-Time PM Shift,2019-09-30 00:00:00
NHC Dickson,"Licensed Practical Nurse (LPN) - PRN ",2019-01-08 00:00:00
NHC HomeCare - Cookeville,"Licensed Practical Nurse (LPN) - PRN ",2020-05-15 00:00:00
NHC Rossville,Medicaid Application Specialist,2020-04-08 00:00:00
NHC Dickson,Certified Occupational Therapy Assistant (COTA) - PRN - Dickson,2017-04-24 00:00:00
NHC Dickson,Nightshift Supervisor(RN) - Dickson,2020-02-11 00:00:00
NHC Bristol,Student CNA Class - Bristol / Johnson City,2020-04-28 00:00:00
NHC Johnson City,Student CNA Class - Bristol / Johnson City,2019-08-05 00:00:00
NHC HomeCare - Chipley,"Masters Social Worker ",2020-01-16 00:00:00
NHC HomeCare - Milan,"Masters Social Worker ",2020-04-01 00:00:00
NHC HomeCare - Sparta,"Masters Social Worker ",2018-07-23 00:00:00
NHC HomeCare - Ascension,"Masters Social Worker ",2020-02-13 00:00:00
NHC HomeCare - Laurens,"Masters Social Worker ",2019-09-30 00:00:00
NHC HomeCare - Murrells Inlet,"Masters Social Worker ",2020-04-13 00:00:00
NHC HomeCare - Aiken,"Masters Social Worker ",2019-09-11 00:00:00
NHC HomeCare - Knoxville,"Masters Social Worker ",2020-07-08 00:00:00
NHC HomeCare - Greenwood,"Masters Social Worker ",2019-11-22 00:00:00
"NHC HealthCare, Charleston",RN - MDS Coordinator,2019-10-31 00:00:00
NHC Glasgow,RN - MDS Coordinator,2016-03-23 00:00:00
NHC Place Sumner,RN - MDS Coordinator,2019-11-29 00:00:00
NHC Murfreesboro,"Licensed Practical Nurse (LPN) $4,000 Sign-On Bonus",2020-07-28 00:00:00
NHC Dickson,Registered Nurse (RN) - Dickson,2020-08-11 00:00:00
NHC Town and Country,Nurse Supervisor (LPN / RN),2017-05-23 00:00:00
NHC Glasgow,Medical Record Technician - Professional,2015-10-22 00:00:00
NHC HomeCare - Aiken,Quality Improvement Coordinator (RN),2018-12-04 00:00:00
NHC HomeCare - Somerville,Quality Improvement Coordinator (RN),2019-11-01 00:00:00
NHC HomeCare - Dickson,Quality Improvement Coordinator (RN),2020-03-26 00:00:00
NHC HomeCare - Beaufort,Registered Nurse (RN) - PRN (Beaufort),2020-08-10 00:00:00
NHC Sparta,Certified Nursing Assistant (CNA) - 2nd Shift,2020-07-07 00:00:00
NHC Chattanooga,Certified Nursing Assistant (CNA) - 2nd Shift,2020-07-28 00:00:00
NHC Dickson,Center Supervisor,2019-05-15 00:00:00
NHC Dickson,Dishwasher,2020-08-17 00:00:00
Adams Place,Dishwasher,2020-08-04 00:00:00
NHC Glasgow,Dishwasher,2016-04-29 00:00:00
NHC Johnson City,Dishwasher,2020-04-13 00:00:00
NHC Town and Country,Dishwasher,2017-05-17 00:00:00
NHC Kingsport,Medical Record Assistant,2020-08-14 00:00:00
Adams Place,"Environmental Services Assistant Supervisor ",2019-05-21 00:00:00
"NHC HealthCare, Charleston",Registered Nurse (RN) - Weekend Supervisor,2020-07-28 00:00:00
"NHC HealthCare, Parklane",Registered Nurse (RN) - Weekend Supervisor,2020-07-23 00:00:00
Adams Place,Maintenance Assistant - Full Time,2020-04-21 00:00:00
NHC Glasgow,Maintenance Assistant - Full Time,2016-08-30 00:00:00
NHC Hendersonville,Maintenance Assistant - Full Time,2020-08-05 00:00:00
NHC Athens,Maintenance Assistant - Full Time,2020-08-13 00:00:00
NHC Oak Ridge,Maintenance Assistant - Full Time,2020-08-17 00:00:00
"NHC HealthCare, Parklane",Bookkeeper,2020-08-03 00:00:00
NHC Knoxville,Bookkeeper,2020-08-10 00:00:00
NHC Glasgow,Bookkeeper,2016-12-30 00:00:00
NHC Tullahoma,Bookkeeper,2019-12-18 00:00:00
NHC Chattanooga,Licensed Practical Nurse (LPN) - PRN,2020-07-28 00:00:00
NHC Rossville,Licensed Practical Nurse (LPN) - PRN,2020-04-26 00:00:00
NHC Oak Ridge,Student CNA Class - Oak Ridge,2019-09-16 00:00:00
NHC HomeCare - Quincy,Compliance Auditor,2020-07-15 00:00:00
NHC HomeCare - Chipley,Compliance Auditor,2020-07-15 00:00:00
NHC HomeCare - Merritt Island,Compliance Auditor,2020-07-15 00:00:00
NHC HomeCare - Panama City,Compliance Auditor,2020-02-28 00:00:00
NHC Dickson,Weekend Center Supervisor (RN) - Dickson,2019-06-21 00:00:00
NHC Murfreesboro,"Registered Nurse (RN) - $4,000 Sign-On Bonus",2020-07-28 00:00:00
"HomeCare - Middle, TN",Account Executive - HomeCare,2020-06-09 00:00:00
NHC HomeCare - McMinnville,Account Executive - HomeCare,2020-07-29 00:00:00
NHC HomeCare - Dickson,Account Executive - HomeCare,2020-01-16 00:00:00
NHC HomeCare - Hendersonville,Account Executive - HomeCare,2020-08-05 00:00:00
NHC HomeCare Corporate,Account Executive - HomeCare,2019-09-13 00:00:00
NHC HomeCare - Athens,Account Executive - HomeCare,2020-07-15 00:00:00
NHC Place at The Trace,Evening Host / Server - Place at The Trace,2020-02-15 00:00:00
"NHC HealthCare, Charleston",Certified Nursing Assistant (CNA) - Weekends,2020-01-03 00:00:00
NHC Tullahoma,Certified Nursing Assistant (CNA) - Weekends,2020-07-16 00:00:00
NHC Rossville,Certified Nursing Assistant (CNA) - Weekends,2020-02-18 00:00:00
NHC Holston,Certified Nursing Assistant (CNA) - Weekends,2020-05-22 00:00:00
NHC Sparta,Student CNA Class,2018-09-26 00:00:00
NHC Athens,Student CNA Class,2020-05-15 00:00:00
NHC Place Farragut,Student CNA Class,2020-04-13 00:00:00
NHC Chattanooga,Student CNA Class,2019-12-10 00:00:00
NHC Fort Sanders,Student CNA Class,2020-06-03 00:00:00
NHC Hendersonville,Student CNA Class,2017-10-04 00:00:00
NHC Fort Oglethorpe,Student CNA Class,2020-08-10 00:00:00
NHC Glasgow,Student CNA Class,2015-09-19 00:00:00
NHC Kingsport,Dietary Aide - Part Time,2019-11-20 00:00:00
NHC Sparta,Dietary Aide - Part Time,2020-07-26 00:00:00
NHC Bristol,Dietary Aide - Part Time,2020-06-24 00:00:00
NHC Place Sumner,Dietary Aide - Part Time,2020-08-11 00:00:00
NHC Tullahoma,Dietary Aide - Part Time,2019-10-07 00:00:00
Epsom HealthCare Center,Housekeeping / Laundry Assistant,2020-08-04 00:00:00
Orangeburg,Physical Therapist Assistant - PRN,2019-02-14 00:00:00
Allendale,Physical Therapist Assistant - PRN,2019-02-14 00:00:00
Holly Hill,Physical Therapist Assistant - PRN,2019-02-14 00:00:00
Adams Place,Licensed Practical Nurse (LPN) - Assisted Living,2020-08-13 00:00:00
NHC Place at The Trace,Weekend Dietary Aide,2020-07-01 00:00:00
"NHC HealthCare, Parklane",Registered Dietitian,2018-02-12 00:00:00
NHC Chattanooga,Registered Dietitian,2019-11-19 00:00:00
NHC HomeCare - Beaufort,Registered Nurse (RN) - Full Time (Beaufort),2020-08-10 00:00:00
NHC HomeCare - Milan,"Speech Language Pathologist ",2020-04-01 00:00:00
NHC HomeCare - Piedmont,"Speech Language Pathologist ",2020-07-17 00:00:00
Richland County,"Speech Language Pathologist ",2020-03-22 00:00:00
NHC HomeCare - Johnson City,"Speech Language Pathologist ",2020-02-21 00:00:00
NHC HomeCare - Cookeville,"Speech Language Pathologist ",2020-07-17 00:00:00
NHC HomeCare - McMinnville,"Speech Language Pathologist ",2020-07-17 00:00:00
NHC HomeCare - Hendersonville,"Speech Language Pathologist ",2020-06-17 00:00:00
NHC HomeCare - Murrells Inlet,"Speech Language Pathologist ",2020-04-13 00:00:00
NHC HomeCare - Lewisburg,"Speech Language Pathologist ",2019-10-25 00:00:00
NHC HomeCare - Aiken,"Speech Language Pathologist ",2020-02-27 00:00:00
Lexington County,"Speech Language Pathologist ",2020-03-22 00:00:00
NHC HomeCare - Sparta,"Speech Language Pathologist ",2020-07-16 00:00:00
NHC Sparta,Licensed Practical Nurse (LPN) - Nights,2020-07-07 00:00:00
NHC Rossville,Licensed Practical Nurse (LPN) - Nights,2020-04-28 00:00:00
NHC Place at Cool Springs,Certified Nursing Assistant (CNA) - Days -Cool Springs,2020-02-27 00:00:00
NHC Knoxville,Licensed Practical Nurse (LPN) - Part Time,2020-07-31 00:00:00
NHC Chattanooga,Licensed Practical Nurse (LPN) - Part Time,2020-04-14 00:00:00
"NHC HealthCare, Charleston",Licensed Practical Nurse (LPN) - Part Time,2019-05-31 00:00:00
NHC Dickson,Licensed Practical Nurse (LPN) - Part Time,2020-02-06 00:00:00
NHC Tullahoma,Licensed Practical Nurse (LPN) - Part Time,2020-07-16 00:00:00
"NHC HealthCare, Parklane",Licensed Practical Nurse (LPN) - Part Time,2020-07-15 00:00:00
NHC Hendersonville,Licensed Practical Nurse (LPN) - Part Time,2018-03-19 00:00:00
NHC Kingsport,Licensed Practical Nurse (LPN) - Part Time,2020-08-03 00:00:00
NHC Place at The Trace,Licensed Practical Nurse (LPN) - Part Time,2020-03-24 00:00:00
NHC Glasgow,Licensed Practical Nurse (LPN) - Part Time,2015-10-02 00:00:00
NHC HomeCare - Laurens,"Licensed Practical Nurse (LPN) ",2019-09-30 00:00:00
NHC HomeCare - Midlands,"Licensed Practical Nurse (LPN) ",2020-07-09 00:00:00
NHC HomeCare - McMinnville,"Licensed Practical Nurse (LPN) ",2020-01-30 00:00:00
NHC HomeCare - Merritt Island,"Licensed Practical Nurse (LPN) ",2020-03-11 00:00:00
NHC HomeCare - Sparta,"Licensed Practical Nurse (LPN) ",2020-07-16 00:00:00
NHC HomeCare - Vero Beach,"Licensed Practical Nurse (LPN) ",2020-08-14 00:00:00
NHC HomeCare - Murfreesboro,"Licensed Practical Nurse (LPN) ",2019-08-27 00:00:00
NHC HomeCare - Knoxville,"Licensed Practical Nurse (LPN) ",2020-07-02 00:00:00
NHC HomeCare - Chattanooga,"Licensed Practical Nurse (LPN) ",2020-08-10 00:00:00
NHC HomeCare - Somerville,"Licensed Practical Nurse (LPN) ",2020-01-16 00:00:00
NHC HomeCare - Pulaski,"Licensed Practical Nurse (LPN) ",2020-07-10 00:00:00
NHC HomeCare - Hendersonville,"Licensed Practical Nurse (LPN) ",2020-03-26 00:00:00
NHC HomeCare - Chipley,"Licensed Practical Nurse (LPN) ",2020-06-12 00:00:00
NHC HomeCare - Ascension,"Licensed Practical Nurse (LPN) ",2020-04-02 00:00:00
NHC HomeCare - Columbia,"Licensed Practical Nurse (LPN) ",2018-03-27 00:00:00
NHC HomeCare - Johnson City,"Licensed Practical Nurse (LPN) ",2019-03-20 00:00:00
NHC HomeCare - Dickson,"Licensed Practical Nurse (LPN) ",2020-01-23 00:00:00
NHC HomeCare - Greenwood,"Licensed Practical Nurse (LPN) ",2019-04-01 00:00:00
NHC HomeCare - Crawfordville,"Licensed Practical Nurse (LPN) ",2020-04-15 00:00:00
NHC HomeCare - Low Country,"Licensed Practical Nurse (LPN) ",2020-08-14 00:00:00
NHC HomeCare - Franklin,"Licensed Practical Nurse (LPN) ",2020-01-21 00:00:00
NHC HomeCare - Vero Beach,Clerical Staff,2020-07-01 00:00:00
NHC Place at Cool Springs,"Certified Nursing Assistant (CNA) - Nights - Cool Springs ",2020-08-05 00:00:00
NHC Hendersonville,Registered Nurse (RN) - PRN,2018-03-19 00:00:00
NHC Rossville,Registered Nurse (RN) - PRN,2020-03-20 00:00:00
"NHC HealthCare, Parklane",Registered Nurse (RN) - PRN,2020-07-23 00:00:00
NHC Place at The Trace,Full Time Cook - Place at the Trace,2020-04-17 00:00:00
NHC Place Sumner,Sumner CNA Class,2020-08-06 00:00:00
Florida Regional Office,Insurance Preauthorization Clerk - FL Regional,2019-10-07 00:00:00
NHC Place Sumner,"LPN - Assisted Living / Memory Care ",2019-12-02 00:00:00
NHC HomeCare - Chipley,"Occupational Therapist ",2020-02-18 00:00:00
NHC HomeCare - McMinnville,"Occupational Therapist ",2020-01-06 00:00:00
NHC HomeCare - Columbia,"Occupational Therapist ",2020-03-30 00:00:00
NHC HomeCare - Johnson City,"Occupational Therapist ",2020-08-12 00:00:00
NHC HomeCare - Somerville,"Occupational Therapist ",2020-01-15 00:00:00
NHC Knoxville,Temporary Nurse Aide,2020-05-19 00:00:00
NHC Murfreesboro,Housekeeper - Part Time,2020-08-06 00:00:00
NHC HomeCare - Milan,"Occupational Therapist - PRN Contract Employee (Carroll, Weakley, Henry, Dyer Counties)",2020-04-01 00:00:00
NHC Chattanooga,Resident Care Coordinator (RN),2019-03-15 00:00:00
NHC Dickson,Nurse Supervisor (RN),2020-02-24 00:00:00
NHC Sparta,Nurse Supervisor (RN),2020-01-27 00:00:00
NHC Murfreesboro,CNA Class,2020-06-16 00:00:00
NHC Place Sumner,LPN - Assisted Living / Memory Care - Part Time,2020-03-03 00:00:00
NHC HomeCare - Greenwood,"Administrator ",2020-07-08 00:00:00
Adams Place,Resident Assistant,2020-08-13 00:00:00
NHC Place Sumner,Resident Assistant,2020-08-12 00:00:00
NHC Dickson,Certified Nursing Assistant (CNA) - Dickson,2020-08-11 00:00:00
NHC Murfreesboro,Housekeeping / Laundry Supervisor,2020-08-06 00:00:00
NHC HomeCare - Aiken,"Physical Therapist Assistant ",2018-06-01 00:00:00
NHC HomeCare - Columbia,"Physical Therapist Assistant ",2018-10-22 00:00:00
NHC Place Farragut,Registered Nurse (RN) - Full Time - Farragut,2020-08-04 00:00:00
NHC Knoxville,Laundry Assistant,2020-07-23 00:00:00
NHC Bristol,Laundry Assistant,2020-08-11 00:00:00
NHC Chattanooga,Laundry Assistant,2020-07-28 00:00:00
NHC Place Sumner,Laundry Assistant,2019-01-31 00:00:00
NHC Fort Sanders,Laundry Assistant,2020-08-14 00:00:00
NHC Town and Country,Laundry Assistant,2017-05-18 00:00:00
NHC Place at The Trace,Laundry Assistant,2019-12-30 00:00:00
"NHC HealthCare, Charleston",Laundry Assistant,2019-09-13 00:00:00
NHC Murfreesboro,Laundry Assistant,2020-08-17 00:00:00
NHC Hendersonville,Laundry Assistant,2020-06-30 00:00:00
NHC Kingsport,Laundry Assistant,2020-07-31 00:00:00
NHC Fort Oglethorpe,Laundry Assistant,2020-08-10 00:00:00
NHC Tullahoma,Laundry Assistant,2020-03-02 00:00:00
NHC Oak Ridge,Laundry Assistant,2020-06-24 00:00:00
NHC Glasgow,Laundry Assistant,2016-09-13 00:00:00
Adams Place,Maintenance Supervisor,2020-04-20 00:00:00
NHC Murfreesboro,Maintenance Supervisor,2015-08-27 00:00:00
NHC Glasgow,Physical Therapist - PRN,2015-09-19 00:00:00
NHC Place Farragut,Licensed Practical Nurse (LPN) - Full Time - Farragut,2020-07-03 00:00:00
Epsom HealthCare Center,LPN/RN - Part Time,2019-08-06 00:00:00
NHC Tullahoma,Occupational Therapy Assistant,2018-12-21 00:00:00
NHC Glasgow,Occupational Therapy Assistant,2015-09-19 00:00:00
Adams Place,Director of Health Services Assisted Living,2020-08-14 00:00:00
NHC HomeCare - Greenwood,Clinical Manager / Director of Nursing (RN),2020-07-28 00:00:00
NHC HomeCare - Somerville,Intake Coordinator (LPN),2020-02-07 00:00:00
NHC HomeCare - Aiken,Intake Coordinator (LPN),2020-07-23 00:00:00
NHC Place at The Trace,Weekend Dietary Cook - Place at the Trace,2020-04-29 00:00:00
NHC Place at The Trace,Nursing Assistant,2019-12-30 00:00:00
NHC Chattanooga,"Licensed Practical Nurse (LPN) - Full - $4,000 Sign On Bonus",2020-07-28 00:00:00
NHC HomeCare - Lawrenceburg,Registered Nurse (RN) - On Call,2020-02-21 00:00:00
NHC Murfreesboro,Dietary Aide $250 Sign-On Bonus,2020-08-04 00:00:00
NHC Richland Place,Medical Records Clerk - Eastern,2020-07-01 00:00:00
NHC Town and Country,Director of Nursing,2017-05-23 00:00:00
NHC Tullahoma,Maintenance Assistant - Part Time,2019-12-18 00:00:00
NHC Murfreesboro,Maintenance Assistant - Part Time,2019-11-28 00:00:00
"NHC HealthCare, Charleston",Maintenance Assistant - Part Time,2019-11-12 00:00:00
NHC HomeCare - Laurens,Assistant Clinical Manager (RN),2018-09-26 00:00:00
NHC Murfreesboro,Laundry Assistant - Part Time,2020-08-17 00:00:00
NHC Johnson City,Recreation / Activities Director,2020-05-19 00:00:00
NHC Oak Ridge,Nurse Supervisor (RN) - Eastern,2020-04-28 00:00:00
NHC Murfreesboro,Floor Technician,2020-01-03 00:00:00
NHC Holston,Floor Technician,2020-07-08 00:00:00
Adams Place,Floor Technician,2019-07-31 00:00:00
NHC Cookeville,Temporary Nurse Aide (Full-time),2020-08-17 00:00:00
NHC Dickson,Student CNA Class - Dickson,2020-08-03 00:00:00
NHC Richland Place,Certified Nursing Assistant (CNA) - Full Time - Eastern,2020-06-16 00:00:00
NHC Athens,Certified Nursing Assistant (CNA) - Full Time - Eastern,2020-05-21 00:00:00
NHC Sparta,Certified Nursing Assistant (CNA) - 3rd Shift,2020-07-07 00:00:00
NHC Richland Place,Registered Nurse (RN) - Full Time - Eastern,2020-06-16 00:00:00
NHC Athens,Registered Nurse (RN) - Full Time - Eastern,2020-08-11 00:00:00
The Meadows,Registered Nurse (RN) - Full Time - Eastern,2020-03-10 00:00:00
NHC Rossville,FREE Student CNA Class - Rossville,2019-09-25 00:00:00
Adams Place,Waiter / Waitress,2020-08-04 00:00:00
NHC Place at The Trace,Waiter / Waitress,2020-07-14 00:00:00
NHC Cookeville,Assistant Bookkeeper,2020-08-08 00:00:00
NHC Fort Sanders,Licensed Practical Nurse (LPN) - Full Time,2020-08-05 00:00:00
NHC Knoxville,Licensed Practical Nurse (LPN) - Full Time,2020-07-31 00:00:00
NHC Kingsport,Licensed Practical Nurse (LPN) - Full Time,2020-08-03 00:00:00
NHC Hendersonville,Licensed Practical Nurse (LPN) - Full Time,2018-03-08 00:00:00
NHC Cookeville,Licensed Practical Nurse (LPN) - Full Time,2020-08-11 00:00:00
NHC Athens,Licensed Practical Nurse (LPN) - Full Time,2020-07-07 00:00:00
NHC Oak Ridge,Licensed Practical Nurse (LPN) - Full Time,2020-08-04 00:00:00
Adams Place,Licensed Practical Nurse (LPN) - Full Time,2018-11-08 00:00:00
NHC Place Sumner,Licensed Practical Nurse (LPN) - Full Time,2020-08-06 00:00:00
NHC Place at Cool Springs,Licensed Practical Nurse (LPN) - Full Time,2020-08-05 00:00:00
NHC Murfreesboro,Licensed Practical Nurse (LPN) - Full Time,2020-08-17 00:00:00
"NHC HealthCare, Charleston",Licensed Practical Nurse (LPN) - Full Time,2020-05-28 00:00:00
NHC Dickson,Licensed Practical Nurse (LPN) - Full Time,2020-08-17 00:00:00
NHC Bristol,Licensed Practical Nurse (LPN) - Full Time,2020-07-21 00:00:00
NHC Place at The Trace,Licensed Practical Nurse (LPN) - Full Time,2020-03-02 00:00:00
NHC Glasgow,Licensed Practical Nurse (LPN) - Full Time,2016-06-30 00:00:00
NHC Holston,Licensed Practical Nurse (LPN) - Full Time,2020-05-22 00:00:00
NHC Lewisburg,Licensed Practical Nurse (LPN) - Full Time,2018-10-10 00:00:00
NHC Tullahoma,Licensed Practical Nurse (LPN) - Full Time,2020-07-27 00:00:00
NHC Johnson City,Licensed Practical Nurse (LPN) - Full Time,2020-07-29 00:00:00
NHC Dickson,Speech Language Pathologist - Full Time - Dickson,2017-11-07 00:00:00
NHC Murfreesboro,Dietary Cook / Assistant Cook $250 Sign-On Bonus,2020-08-04 00:00:00
NHC Place at Cool Springs,Resident Assistant (RA) - Part Time/PRN - Cool Springs,2020-03-20 00:00:00
NHC Glasgow,Certified Medication Technician,2016-07-14 00:00:00
NHC Tullahoma,Receptionist - Part Time - Tullahoma,2019-07-17 00:00:00
NHC Richland Place,Licensed Practical Nurse (LPN) - Part Time - Eastern,2020-03-02 00:00:00
NHC Holston,Dietary Cook / Assistant Cook,2020-07-21 00:00:00
Adams Place,Dietary Cook / Assistant Cook,2020-08-04 00:00:00
NHC Tullahoma,Dietary Cook / Assistant Cook,2019-12-20 00:00:00
NHC Glasgow,Dietary Cook / Assistant Cook,2016-04-25 00:00:00
NHC Johnson City,Dietary Cook / Assistant Cook,2020-06-01 00:00:00
NHC Lewisburg,Dietary Cook / Assistant Cook,2018-11-06 00:00:00
NHC Place at The Trace,Dietary Cook / Assistant Cook,2020-04-17 00:00:00
NHC Place Sumner,Dietary Cook / Assistant Cook,2020-08-11 00:00:00
"NHC HealthCare, Charleston",Dietary Cook / Assistant Cook,2019-08-15 00:00:00
NHC Athens,Dietary Cook / Assistant Cook,2020-05-18 00:00:00
NHC Hendersonville,Dietary Cook / Assistant Cook,2020-06-03 00:00:00
NHC Cookeville,Dietary Cook / Assistant Cook,2020-08-12 00:00:00
NHC Fort Sanders,Dietary Cook / Assistant Cook,2020-08-03 00:00:00
"NHC HealthCare, Parklane",Nursing Secretary,2020-07-16 00:00:00
NHC Place at The Trace,Social Worker,2020-07-23 00:00:00
NHC Glasgow,Social Worker,2016-06-09 00:00:00
"NHC HealthCare, Parklane",Social Worker,2020-02-10 00:00:00
"NHC HealthCare, Charleston",Social Worker,2020-07-28 00:00:00
NHC Dickson,Social Worker,2020-08-12 00:00:00
NHC Athens,Dietary Aide - Eastern,2020-08-17 00:00:00
NHC Bristol,Dietary Manager,2020-08-06 00:00:00
NHC Glasgow,Dietary Manager,2015-11-13 00:00:00
NHC HomeCare - Aiken,Regional Administrator,2018-08-22 00:00:00
NHC Place Farragut,Certified Nursing Assistant (CNA) - Full Time - Farragut,2020-07-13 00:00:00
The Meadows,Licensed Practical Nurse (LPN) - Full Time - Eastern,2020-03-10 00:00:00
NHC Richland Place,Licensed Practical Nurse (LPN) - Full Time - Eastern,2020-07-31 00:00:00
NHC Richland Place,Social Worker - Eastern,2020-08-17 00:00:00
NHC Murfreesboro,"Certified Nursing Assistant (CNA) - $1,000 Sign-On Bonus",2020-08-17 00:00:00
NHC Town and Country,"Certified Nursing Assistant (CNA) - $1,000 Sign-On Bonus",2017-06-13 00:00:00
NHC Lewisburg,Caregiver - Lewisburg,2018-06-26 00:00:00
NHC Place Farragut,Dishwasher - Farragut,2020-08-04 00:00:00
NHC Hendersonville,Registered Nurse (RN) - Part Time,2018-03-19 00:00:00
NHC HomeCare Corporate,Area Director of Clinical Operations,2020-07-30 00:00:00
NHC Glasgow,Physical Therapist Assistant,2015-09-19 00:00:00
NHC HomeCare - Knoxville,Transitional Care Nuse (LPN),2020-06-09 00:00:00
NHC Glasgow,Director of Dietary - Glasgow,2016-04-11 00:00:00
NHC Sparta,Resident Care Assistant (RCA) - Full Time,2020-07-24 00:00:00
NHC Dickson,Licensed Practical Nurse (LPN) - Dickson,2020-08-17 00:00:00
NHC Tullahoma,Certified Nurse Aide Training Program,2017-03-03 00:00:00
NHC Rossville,Certified Nursing Assistant (CNA) - PRN,2020-04-21 00:00:00
NHC Hendersonville,Certified Nursing Assistant (CNA) - PRN,2020-05-26 00:00:00
NHC Richland Place,Certified Nursing Assistant (CNA) - Eastern,2019-11-08 00:00:00
The Meadows,Certified Nursing Assistant (CNA) - Eastern,2020-03-10 00:00:00
NHC HomeCare - Dickson,"Social Work Assistant ",2020-01-07 00:00:00
"NHC HealthCare, Parklane",Unit Manager (RN),2020-08-05 00:00:00
NHC Place Sumner,Unit Manager (RN),2020-06-16 00:00:00
NHC Dickson,Unit Manager (RN),2019-05-08 00:00:00
"NHC HealthCare, Lexington",Unit Manager (RN),2020-08-11 00:00:00
"NHC HealthCare, Charleston",Unit Manager (RN),2020-02-14 00:00:00
NHC Cookeville,Student CNA Class - Cookeville,2020-03-18 00:00:00
NHC Chattanooga,Certified Nursing Assistant (CNA) - 1st Shift,2020-07-28 00:00:00
NHC Dickson,Speech Language Pathologist - PRN - Dickson,2017-04-24 00:00:00
NHC Johnson City,RN Supervisor,2020-07-23 00:00:00
NHC Place Farragut,Registered Nurse (RN) - Full Time - Night Shift Supervisor,2020-07-24 00:00:00
NHC Dickson,Certified Nursing Assistant (CNA) - Night Shift - Dickson,2020-08-05 00:00:00
Florida Regional Office,Insurance Verification Specialist,2019-10-31 00:00:00
NHC Town and Country,"Licensed Practical Nurse (LPN) $2,000 Sign-On Bonus",2017-06-13 00:00:00
NHC Place at The Trace,Beautician,2020-07-08 00:00:00
NHC Place at The Trace,Student CNA Class - Place at the Trace,2019-12-30 00:00:00
NHC Place at The Trace,Part-Time Dietary Aide,2020-06-15 00:00:00
Florida Regional Office,Insurance A/R Specialist,2019-03-27 00:00:00
NHC HomeCare Corporate,Insurance A/R Specialist,2019-05-08 00:00:00
NHC Dickson,Cook - Dickson,2020-08-17 00:00:00
NHC HomeCare - Midlands,"Registered Nurse (RN) ",2019-02-18 00:00:00
NHC HomeCare - Chipley,"Registered Nurse (RN) ",2019-11-18 00:00:00
NHC HomeCare - Greenwood,"Registered Nurse (RN) ",2020-07-28 00:00:00
NHC HomeCare - Port St. Joe,"Registered Nurse (RN) ",2020-07-27 00:00:00
NHC HomeCare - Dickson,"Registered Nurse (RN) ",2020-07-21 00:00:00
Richland County,"Registered Nurse (RN) ",2020-08-10 00:00:00
NHC HomeCare - Hendersonville,"Registered Nurse (RN) ",2020-07-09 00:00:00
NHC HomeCare - Chattanooga,"Registered Nurse (RN) ",2020-08-10 00:00:00
NHC HomeCare - Murrells Inlet,"Registered Nurse (RN) ",2020-07-17 00:00:00
NHC HomeCare - Greenville,"Registered Nurse (RN) ",2019-12-16 00:00:00
Lexington County,"Registered Nurse (RN) ",2020-08-10 00:00:00
NHC HomeCare - Pulaski,"Registered Nurse (RN) ",2020-07-28 00:00:00
"Tallahassee, FL","Registered Nurse (RN) ",2020-06-18 00:00:00
NHC HomeCare - Crawfordville,"Registered Nurse (RN) ",2020-03-13 00:00:00
NHC HomeCare - Quincy,"Registered Nurse (RN) ",2020-01-29 00:00:00
NHC HomeCare - McMinnville,"Registered Nurse (RN) ",2019-12-14 00:00:00
NHC HomeCare - Merritt Island,"Registered Nurse (RN) ",2020-08-05 00:00:00
NHC HomeCare - Cookeville,"Registered Nurse (RN) ",2020-06-08 00:00:00
NHC HomeCare - North Knoxville/Norris Area,"Registered Nurse (RN) ",2020-06-18 00:00:00
NHC HomeCare - Aiken,"Registered Nurse (RN) ",2020-01-07 00:00:00
NHC HomeCare - Carrabelle,"Registered Nurse (RN) ",2019-08-14 00:00:00
NHC HomeCare - Columbia,"Registered Nurse (RN) ",2019-10-29 00:00:00
NHC HomeCare - Laurens,"Registered Nurse (RN) ",2018-03-26 00:00:00
NHC HomeCare - Panama City,"Registered Nurse (RN) ",2020-06-01 00:00:00
NHC HomeCare - Johnson City,"Registered Nurse (RN) ",2020-08-03 00:00:00
NHC HomeCare - Low Country,"Registered Nurse (RN) ",2019-12-27 00:00:00
NHC HomeCare - Knoxville,"Registered Nurse (RN) ",2020-06-18 00:00:00
NHC Richland Place,Registered Nurse (RN) - Part Time - Eastern,2020-04-02 00:00:00
NHC Dickson,Physical Therapist - PRN - Dickson,2017-04-24 00:00:00
NHC Chattanooga,"Registered Nurse (RN) - Full Time - $4,000 Sign On Bonus",2020-07-28 00:00:00
NHC Town and Country,"Registered Nurse (RN) - $3,000 Sign-On Bonus ",2017-06-13 00:00:00
NHC HomeCare - Lawrenceburg,Registered Nurse (RN) - Lawrenceburg,2020-03-03 00:00:00
NHC Tullahoma,Occupational Therapist,2018-12-21 00:00:00
NHC Glasgow,Occupational Therapist,2015-09-19 00:00:00
NHC HomeCare - Cookeville,"Registered Nurse (RN)  - PRN ",2020-05-07 00:00:00
NHC HomeCare - Low Country,"Registered Nurse (RN)  - PRN ",2020-03-30 00:00:00
Branchville,"Registered Nurse (RN)  - PRN ",2019-02-14 00:00:00
Allendale,"Registered Nurse (RN)  - PRN ",2019-02-14 00:00:00
NHC HomeCare - Milan,"Registered Nurse (RN)  - PRN ",2019-05-20 00:00:00
NHC Tullahoma,Physical Therapist,2019-02-07 00:00:00
NHC Glasgow,Physical Therapist,2016-06-20 00:00:00
NHC Place Farragut,Licensed Practical Nurse (LPN)- Full Time- Night Shift Supervisor - Farragut,2020-08-12 00:00:00
NHC Place Farragut,Waiter / Waitress - Farragut,2020-07-24 00:00:00
NHC HomeCare - Murfreesboro,Coder,2020-02-07 00:00:00
NHC HomeCare Corporate,Coder,2019-08-28 00:00:00
NHC HomeCare - Chattanooga,Coder,2020-02-07 00:00:00
NHC HomeCare - Franklin,Coder,2020-02-07 00:00:00
NHC HomeCare - Knoxville,Coder,2020-02-07 00:00:00
Epsom HealthCare Center,Licensed Nursing Assistant,2020-08-14 00:00:00
NHC Fort Oglethorpe,Recreation Assistant,2020-07-14 00:00:00
NHC Place at The Trace,Recreation Assistant,2020-06-08 00:00:00
Epsom HealthCare Center,Recreation Assistant,2020-07-27 00:00:00
NHC Glasgow,Recreation Assistant,2016-07-14 00:00:00
NHC HomeCare - Cookeville,Psychiatric Registered Nurse (RN),2020-06-08 00:00:00
NHC HomeCare - Low Country,Psychiatric Registered Nurse (RN),2020-08-07 00:00:00
NHC HomeCare - McMinnville,Community Liaison,2020-07-24 00:00:00
NHC HomeCare - Vero Beach,Community Liaison,2020-05-21 00:00:00
Epsom HealthCare Center,Licensed Nursing Assistant - Full Time,2020-03-04 00:00:00
NHC Place Farragut,Resident Care Assistant (RCA) - Full Time - Farragut,2020-08-11 00:00:00
NHC Knoxville,Registered Nurse (RN) - Part Time,2020-07-31 00:00:00
NHC Glasgow,Registered Nurse (RN) - Part Time,2016-07-06 00:00:00
Adams Place,Registered Nurse (RN) - Part Time,2018-07-20 00:00:00
NHC Place at The Trace,Registered Nurse (RN) - Part Time,2020-02-17 00:00:00
NHC Chattanooga,Registered Nurse (RN) - Part Time,2020-07-28 00:00:00
NHC Tullahoma,Registered Nurse (RN) - Part Time,2020-07-16 00:00:00
NHC Glasgow,Admissions Coordinator,2015-09-29 00:00:00
Orangeburg,Physical Therapist - PRN,2019-02-14 00:00:00
Allendale,Physical Therapist - PRN,2019-02-14 00:00:00
Holly Hill,Physical Therapist - PRN,2019-02-14 00:00:00
"NHC HealthCare, Charleston",Registered Nurse (RN) - Full Time,2020-05-28 00:00:00
"NHC HealthCare, Parklane",Registered Nurse (RN) - Full Time,2020-07-15 00:00:00
NHC Hendersonville,Registered Nurse (RN) - Full Time,2018-03-08 00:00:00
Adams Place,Registered Nurse (RN) - Full Time,2020-07-28 00:00:00
NHC Kingsport,Registered Nurse (RN) - Full Time,2020-08-03 00:00:00
NHC Place at The Trace,Registered Nurse (RN) - Full Time,2020-08-04 00:00:00
NHC Lewisburg,Registered Nurse (RN) - Full Time,2019-02-14 00:00:00
NHC Oak Ridge,Registered Nurse (RN) - Full Time,2020-05-12 00:00:00
NHC Knoxville,Registered Nurse (RN) - Full Time,2020-07-31 00:00:00
NHC Bristol,Registered Nurse (RN) - Full Time,2020-07-21 00:00:00
NHC Murfreesboro,Registered Nurse (RN) - Full Time,2020-07-14 00:00:00
"NHC HealthCare, Lexington",Registered Nurse (RN) - Full Time,2020-08-11 00:00:00
NHC Tullahoma,Registered Nurse (RN) - Full Time,2020-07-16 00:00:00
NHC Holston,Registered Nurse (RN) - Full Time,2020-05-22 00:00:00
NHC Fort Sanders,Registered Nurse (RN) - Full Time,2020-08-05 00:00:00
NHC Place Sumner,Registered Nurse (RN) - Full Time,2020-08-06 00:00:00
NHC Glasgow,Registered Nurse (RN) - Full Time,2016-12-30 00:00:00
NHC Place at Cool Springs,Registered Nurse (RN) - Full Time,2020-08-05 00:00:00
NHC Johnson City,Registered Nurse (RN) - Full Time,2020-07-29 00:00:00
NHC Town and Country,RN - MDS Coordinator - Care Plan Coordinator,2016-07-26 00:00:00
NHC Rossville,Licensed Practical Nurse (LPN) - Weekend Shift,2020-05-01 00:00:00
NHC HomeCare - Greenwood,Certified Nursing Assistant (CNA),2019-02-07 00:00:00
NHC HomeCare - Low Country,Certified Nursing Assistant (CNA),2020-06-02 00:00:00
NHC HomeCare - Piedmont,Certified Nursing Assistant (CNA),2019-12-18 00:00:00
NHC HomeCare - Knoxville,Certified Nursing Assistant (CNA),2020-08-05 00:00:00
NHC HomeCare - Beaufort,Certified Nursing Assistant (CNA),2019-11-11 00:00:00
NHC HomeCare - Ascension,Certified Nursing Assistant (CNA),2019-11-05 00:00:00
NHC HomeCare - Columbia,Certified Nursing Assistant (CNA),2019-06-21 00:00:00
NHC HomeCare - Milan,Certified Nursing Assistant (CNA),2020-06-05 00:00:00
NHC HomeCare - Murrells Inlet,Certified Nursing Assistant (CNA),2018-12-18 00:00:00
"NHC HealthCare, Lexington",Housekeeper,2016-04-27 00:00:00
NHC Place Sumner,Housekeeper,2020-07-23 00:00:00
NHC Fort Sanders,Housekeeper,2020-07-10 00:00:00
NHC Town and Country,Housekeeper,2017-05-10 00:00:00
NHC Place at The Trace,Housekeeper,2020-08-11 00:00:00
NHC Dickson,Housekeeper,2020-07-20 00:00:00
"NHC HealthCare, Charleston",Housekeeper,2020-04-22 00:00:00
NHC Cookeville,Housekeeper,2020-07-01 00:00:00
NHC Hendersonville,Housekeeper,2019-08-26 00:00:00
NHC Oak Ridge,Housekeeper,2020-07-28 00:00:00
NHC Johnson City,Housekeeper,2020-07-08 00:00:00
NHC Glasgow,Housekeeper,2016-11-21 00:00:00
NHC Murfreesboro,Housekeeper,2020-08-06 00:00:00
NHC Rossville,Housekeeper,2020-07-27 00:00:00
"NHC HealthCare, Parklane",Housekeeper,2020-01-09 00:00:00
NHC Tullahoma,Housekeeper,2019-12-20 00:00:00
NHC Chattanooga,Housekeeper,2020-07-28 00:00:00
NHC Lewisburg,Housekeeper,2018-08-31 00:00:00
NHC Sparta,Certified Nursing Assistant (CNA),2020-07-07 00:00:00
NHC Place at The Trace,Certified Nursing Assistant (CNA),2020-08-11 00:00:00
NHC Place at The Trace,Assistant Director of Nursing,2020-07-09 00:00:00
"NHC HealthCare, Parklane",Assistant Director of Nursing,2020-08-10 00:00:00
NHC Town and Country,Assistant Director of Nursing,2017-05-23 00:00:00
NHC Richland Place,Dishwasher - Eastern,2020-07-03 00:00:00
NHC Oak Ridge,Certified Nursing Assistant (CNA) - Part Time,2020-03-09 00:00:00
NHC Holston,Certified Nursing Assistant (CNA) - Part Time,2020-05-22 00:00:00
"NHC HealthCare, Charleston",Certified Nursing Assistant (CNA) - Part Time,2020-01-03 00:00:00
NHC Hendersonville,Certified Nursing Assistant (CNA) - Part Time,2020-05-26 00:00:00
NHC Tullahoma,Certified Nursing Assistant (CNA) - Part Time,2020-07-16 00:00:00
NHC Knoxville,Certified Nursing Assistant (CNA) - Part Time,2020-07-31 00:00:00
NHC Kingsport,Certified Nursing Assistant (CNA) - Part Time,2020-03-13 00:00:00
NHC Glasgow,Certified Nursing Assistant (CNA) - Part Time,2016-07-19 00:00:00
"NHC HealthCare, Parklane",Certified Nursing Assistant (CNA) - Part Time,2020-08-03 00:00:00
NHC Johnson City,Certified Nursing Assistant (CNA) - Part Time,2019-12-04 00:00:00
NHC Cookeville,Certified Nursing Assistant (CNA) - Part Time,2020-07-21 00:00:00
NHC Place Farragut,Licensed Practical Nurses (LPN) - Float Pool - Farragut,2020-08-10 00:00:00
"NHC HealthCare, Parklane",Receptionist,2020-07-16 00:00:00
Adams Place,Receptionist,2020-08-03 00:00:00
NHC Fort Sanders,Receptionist,2020-08-12 00:00:00
NHC Knoxville,Receptionist,2020-07-22 00:00:00
NHC Glasgow,Receptionist,2016-06-09 00:00:00
NHC Tullahoma,Receptionist,2018-12-19 00:00:00
NHC Hendersonville,Receptionist,2020-05-20 00:00:00
NHC Place Sumner,Rehab Aide,2020-08-07 00:00:00
NHC Hendersonville,Rehab Aide,2020-03-24 00:00:00
NHC Murfreesboro,Student CNA Class - Murfreesboro,2019-11-19 00:00:00
NHC HomeCare - Greenville,Scheduler (LPN),2020-07-17 00:00:00
NHC HomeCare - Aiken,Scheduler (LPN),2020-07-23 00:00:00
Adams Place,Student CNA Class - Adams Place,2019-04-12 00:00:00
NHC Place at The Trace,Recreation Intern,2020-01-31 00:00:00
"NHC HealthCare, Charleston",Admissions Specialist (RN),2020-06-03 00:00:00
NHC HomeCare - McMinnville,"Physical Therapist ",2020-01-02 00:00:00
NHC HomeCare - Greenwood,"Physical Therapist ",2019-06-18 00:00:00
NHC HomeCare - Milan,"Physical Therapist ",2018-11-05 00:00:00
NHC HomeCare - Ascension,"Physical Therapist ",2020-03-13 00:00:00
NHC HomeCare - Merritt Island,"Physical Therapist ",2020-03-18 00:00:00
NHC HomeCare - Chipley,"Physical Therapist ",2019-12-05 00:00:00
Walterboro South Carolina,"Physical Therapist ",2020-02-21 00:00:00
NHC HomeCare - Knoxville,"Physical Therapist ",2020-08-17 00:00:00
NHC HomeCare - Sparta,"Physical Therapist ",2018-03-14 00:00:00
NHC HomeCare - Low Country,"Physical Therapist ",2020-04-01 00:00:00
NHC HomeCare - Columbia,"Physical Therapist ",2020-05-18 00:00:00
NHC HomeCare - Aiken,"Physical Therapist ",2018-04-20 00:00:00
NHC HomeCare - Hendersonville,"Physical Therapist ",2020-08-10 00:00:00
NHC HomeCare - Springfield,"Physical Therapist ",2020-07-24 00:00:00
NHC HomeCare - Vero Beach,"Physical Therapist ",2020-07-15 00:00:00
NHC Murfreesboro,Nursing - Unit Manager,2020-08-17 00:00:00
NHC HomeCare - Vero Beach,Home Health Aide,2020-06-08 00:00:00
NHC HomeCare - Crawfordville,Home Health Aide,2020-03-13 00:00:00
NHC HomeCare - Chipley,Home Health Aide,2020-03-04 00:00:00
NHC HomeCare - Columbia,Home Health Aide,2019-10-29 00:00:00
NHC Tullahoma,Speech Language Pathologist,2017-05-29 00:00:00
NHC Dickson,Dietary Aide - Dickson,2020-08-17 00:00:00
NHC Dickson,Physical Therapist Assistant - PRN - Dickson,2017-04-24 00:00:00
NHC HomeCare Corporate,Clinical Liaison - HomeCare,2019-10-02 00:00:00
"NHC HealthCare, Parklane",Dietary Aide,2020-06-17 00:00:00
NHC Sparta,Dietary Aide,2020-08-11 00:00:00
NHC Glasgow,Dietary Aide,2015-07-29 00:00:00
NHC Chattanooga,Dietary Aide,2019-11-19 00:00:00
NHC Place at The Trace,Dietary Aide,2020-06-15 00:00:00
"NHC HealthCare, Charleston",Dietary Aide,2019-08-16 00:00:00
NHC Holston,Dietary Aide,2020-07-12 00:00:00
NHC Hendersonville,Dietary Aide,2020-08-05 00:00:00
Epsom HealthCare Center,Dietary Aide,2020-07-15 00:00:00
NHC Town and Country,Dietary Aide,2017-04-19 00:00:00
NHC Tullahoma,Dietary Aide,2020-07-29 00:00:00
NHC Rossville,Dietary Aide,2019-12-12 00:00:00
Adams Place,Dietary Aide,2020-08-04 00:00:00
NHC Place Sumner,Dietary Aide,2020-08-11 00:00:00
NHC Lewisburg,Dietary Aide,2018-11-06 00:00:00
NHC Knoxville,Certified Nursing Assistant (CNA) - Full Time,2020-08-10 00:00:00
NHC Fort Sanders,Certified Nursing Assistant (CNA) - Full Time,2020-07-02 00:00:00
Adams Place,Certified Nursing Assistant (CNA) - Full Time,2019-11-25 00:00:00
NHC Bristol,Certified Nursing Assistant (CNA) - Full Time,2020-06-25 00:00:00
NHC Holston,Certified Nursing Assistant (CNA) - Full Time,2020-06-23 00:00:00
NHC Chattanooga,Certified Nursing Assistant (CNA) - Full Time,2020-07-28 00:00:00
NHC Glasgow,Certified Nursing Assistant (CNA) - Full Time,2016-07-05 00:00:00
"NHC HealthCare, Parklane",Certified Nursing Assistant (CNA) - Full Time,2020-08-07 00:00:00
NHC Johnson City,Certified Nursing Assistant (CNA) - Full Time,2020-08-10 00:00:00
NHC Kingsport,Certified Nursing Assistant (CNA) - Full Time,2020-07-13 00:00:00
NHC Place at Cool Springs,Certified Nursing Assistant (CNA) - Full Time,2020-08-05 00:00:00
NHC Rossville,Certified Nursing Assistant (CNA) - Full Time,2020-03-24 00:00:00
NHC Hendersonville,Certified Nursing Assistant (CNA) - Full Time,2020-04-07 00:00:00
"NHC HealthCare, Charleston",Certified Nursing Assistant (CNA) - Full Time,2020-02-11 00:00:00
NHC Lewisburg,Certified Nursing Assistant (CNA) - Full Time,2019-01-22 00:00:00
NHC Place Sumner,Certified Nursing Assistant (CNA) - Full Time,2020-08-06 00:00:00
